// Jest Snapshot v1, https://goo.gl/fbAQLP

exports[`shallow-renders correctly 1`] = `
<div
  className="MuiGrid-typeContainer-1 MuiGrid-spacing-xs-16-22"
>
  <withStyles(GridWrapper)
    item={true}
    xs={true}
  >
    <withStyles(GridWrapper)
      container={true}
      direction="column"
    >
      <withStyles(GridWrapper)
        item={true}
      >
        <withStyles(Typography)
          type="display3"
        >
          Le Flash Bruxellois
        </withStyles(Typography)>
        <withStyles(Typography)
          type="title"
        >
          Pré-commande de Noël maintenant disponible! Réservez vite le vôtre !
        </withStyles(Typography)>
      </withStyles(GridWrapper)>
      <withStyles(GridWrapper)
        item={true}
        xs={true}
      >
        <withStyles(Button)
          color="primary"
          raised={true}
          style={
            Object {
              "alignText": "center",
              "borderRadius": "10px",
              "margin": "20px",
              "padding": "40px",
            }
          }
        >
          Commander
        </withStyles(Button)>
      </withStyles(GridWrapper)>
      <withStyles(GridWrapper)
        item={true}
        xs={true}
      >
        <withStyles(List)>
          <CheckItem
            label="40 Flashs bruxellois en un livre unique"
          />
          <CheckItem
            label="illustrations en couleurs"
          />
          <CheckItem
            label="Préface par Dr. Ghada el Wakil"
          />
          <CheckItem
            label="Livre dédicacé par l'auteur"
          />
          <CheckItem
            label="Contenu inédit et petites surprises"
          />
        </withStyles(List)>
      </withStyles(GridWrapper)>
    </withStyles(GridWrapper)>
  </withStyles(GridWrapper)>
  <withStyles(GridWrapper)
    item={true}
    xs={true}
  >
    <img
      alt=""
      src="fbCover.png"
    />
  </withStyles(GridWrapper)>
</div>
`;
