// Jest Snapshot v1, https://goo.gl/fbAQLP

exports[`shallow-renders correctly 1`] = `
<div
  className="SingleDatePicker"
>
  <OutsideClickHandler
    onOutsideClick={[Function]}
  >
    <SingleDatePickerInput
      customCloseIcon={null}
      customInputIcon={null}
      disabled={false}
      displayValue={null}
      focused={false}
      id="date"
      inputIconPosition="before"
      inputValue={null}
      isFocused={false}
      isRTL={false}
      onChange={[Function]}
      onClearDate={[Function]}
      onFocus={[Function]}
      onKeyDownArrowDown={[Function]}
      onKeyDownShiftTab={[Function]}
      onKeyDownTab={[Function]}
      openDirection="down"
      phrases={
        Object {
          "calendarLabel": "Calendar",
          "chooseAvailableDate": [Function],
          "clearDate": "Clear Date",
          "closeDatePicker": "Close",
          "dateIsUnavailable": [Function],
          "enterKey": "Enter key",
          "escape": "Escape key",
          "hideKeyboardShortcutsPanel": "Close the shortcuts panel",
          "homeEnd": "Home and end keys",
          "jumpToNextMonth": "Move forward to switch to the next month",
          "jumpToPrevMonth": "Move backward to switch to the previous month",
          "keyboardNavigationInstructions": "Press the down arrow key to interact with the calendar and
  select a date. Press the question mark key to get the keyboard shortcuts for changing dates.",
          "keyboardShortcuts": "Keyboard Shortcuts",
          "leftArrowRightArrow": "Right and left arrow keys",
          "moveFocusByOneDay": "Move backward (left) and forward (right) by one day",
          "moveFocusByOneMonth": "Switch months",
          "moveFocusByOneWeek": "Move backward (up) and forward (down) by one week",
          "moveFocustoStartAndEndOfWeek": "Go to the first or last day of a week",
          "openThisPanel": "Open this panel",
          "pageUpPageDown": "page up and page down keys",
          "questionMark": "Question mark",
          "returnFocusToInput": "Return to the date input field",
          "selectFocusedDate": "Select the date in focus",
          "showKeyboardShortcutsPanel": "Open the keyboard shortcuts panel",
          "upArrowDownArrow": "up and down arrow keys",
        }
      }
      placeholder="Date"
      readOnly={false}
      required={false}
      screenReaderMessage=""
      showCaret={true}
      showClearDate={false}
      showDefaultInputIcon={true}
    />
  </OutsideClickHandler>
</div>
`;
