// Jest Snapshot v1, https://goo.gl/fbAQLP

exports[`shallow-renders correctly 1`] = `
<hr
  style={
    Object {
      "border": "none",
      "borderBottomColor": "#d8d9d9",
      "borderBottomStyle": "dashed",
      "borderBottomWidth": "2px",
      "margin": "0 10px",
    }
  }
/>
`;
